id,slug,title,summary
38,in-hac-habitasse-platea-dictumst,"In hac habitasse platea dictumst","Ubi est barbatus nix. Ut suscipit posuere justo at vulputate. Eposs sunt solems de superbus fortis. Vae humani generis. Diatrias tolerare tanquam noster caesium. Abnobas sunt hilotaes de placidus vita."
39,morbi-tempus-commodo-mattis,"Morbi tempus commodo mattis","Sed varius a risus eget aliquam. Silva de secundus galatae demitto quadra. Bassus fatalis classiss virtualiter transferre de flavum. Nulla porta lobortis ligula vel egestas. Lorem ipsum dolor sit amet consectetur adipiscing elit."
40,ut-suscipit-posuere-justo-at-vulputate,"Ut suscipit posuere justo at vulputate","Vae humani generis. Nunc viverra elit ac laoreet suscipit. In hac habitasse platea dictumst. Eros diam egestas libero eu vulputate risus. Mineralis persuadere omnes finises desiderium. Sed varius a risus eget aliquam."
41,ut-eleifend-mauris-et-risus-ultrices-egestas,"Ut eleifend mauris et risus ultrices egestas","Silva de secundus galatae demitto quadra. Mauris dapibus risus quis suscipit vulputate. Ut eleifend mauris et risus ultrices egestas. Ubi est barbatus nix. Ut suscipit posuere justo at vulputate. Potus sensim ad ferox abnoba."
42,aliquam-sodales-odio-id-eleifend-tristique,"Aliquam sodales odio id eleifend tristique","Nunc viverra elit ac laoreet suscipit. Ut eleifend mauris et risus ultrices egestas. Silva de secundus galatae demitto quadra. Ubi est barbatus nix. Morbi tempus commodo mattis. Teres talis saepe tractare de camerarius flavum sensorem."
43,urna-nisl-sollicitudin-id-varius-orci-quam-id-turpis,"Urna nisl sollicitudin id varius orci quam id turpis","Teres talis saepe tractare de camerarius flavum sensorem. Curabitur aliquam euismod dolor non ornare. Eposs sunt solems de superbus fortis. Sed varius a risus eget aliquam. Aliquam sodales odio id eleifend tristique."
44,nulla-porta-lobortis-ligula-vel-egestas,"Nulla porta lobortis ligula vel egestas","Sunt seculaes transferre talis camerarius fluctuies. Urna nisl sollicitudin id varius orci quam id turpis. Lorem ipsum dolor sit amet consectetur adipiscing elit. Era brevis ratione est. Diatrias tolerare tanquam noster caesium."
45,curabitur-aliquam-euismod-dolor-non-ornare,"Curabitur aliquam euismod dolor non ornare","Pellentesque vitae velit ex. Teres talis saepe tractare de camerarius flavum sensorem. Ut eleifend mauris et risus ultrices egestas. Potus sensim ad ferox abnoba. Curabitur aliquam euismod dolor non ornare. In hac habitasse platea dictumst."
46,sed-varius-a-risus-eget-aliquam,"Sed varius a risus eget aliquam","Ut eleifend mauris et risus ultrices egestas. Aliquam sodales odio id eleifend tristique. In hac habitasse platea dictumst. Ut suscipit posuere justo at vulputate. Bassus fatalis classiss virtualiter transferre de flavum."
47,nunc-viverra-elit-ac-laoreet-suscipit,"Nunc viverra elit ac laoreet suscipit","In hac habitasse platea dictumst. Sunt torquises imitari velox mirabilis medicinaes. Lorem ipsum dolor sit amet consectetur adipiscing elit. Sunt accentores vitare salvus flavum parses. Bassus fatalis classiss virtualiter transferre de flavum."
48,pellentesque-et-sapien-pulvinar-consectetur,"Pellentesque et sapien pulvinar consectetur","Sunt seculaes transferre talis camerarius fluctuies. Abnobas sunt hilotaes de placidus vita. In hac habitasse platea dictumst. Mauris dapibus risus quis suscipit vulputate. Era brevis ratione est. Nulla porta lobortis ligula vel egestas."
49,ubi-est-barbatus-nix,"Ubi est barbatus nix","Morbi tempus commodo mattis. Abnobas sunt hilotaes de placidus vita. Pellentesque et sapien pulvinar consectetur. Nunc viverra elit ac laoreet suscipit. Mauris dapibus risus quis suscipit vulputate. Sunt accentores vitare salvus flavum parses."
50,abnobas-sunt-hilotaes-de-placidus-vita,"Abnobas sunt hilotaes de placidus vita","Eros diam egestas libero eu vulputate risus. Mineralis persuadere omnes finises desiderium. Ut eleifend mauris et risus ultrices egestas. Abnobas sunt hilotaes de placidus vita. Era brevis ratione est. Sunt torquises imitari velox mirabilis medicinaes."
51,ubi-est-audax-amicitia,"Ubi est audax amicitia","Potus sensim ad ferox abnoba. Sunt seculaes transferre talis camerarius fluctuies. Pellentesque et sapien pulvinar consectetur. Aliquam sodales odio id eleifend tristique. Ubi est audax amicitia. Mauris dapibus risus quis suscipit vulputate."
52,eposs-sunt-solems-de-superbus-fortis,"Eposs sunt solems de superbus fortis","Eros diam egestas libero eu vulputate risus. Ubi est barbatus nix. Diatrias tolerare tanquam noster caesium. Morbi tempus commodo mattis. Ut eleifend mauris et risus ultrices egestas. Aliquam sodales odio id eleifend tristique."
53,vae-humani-generis,"Vae humani generis","Abnobas sunt hilotaes de placidus vita. Sed varius a risus eget aliquam. Nulla porta lobortis ligula vel egestas. Urna nisl sollicitudin id varius orci quam id turpis. Sunt seculaes transferre talis camerarius fluctuies."
54,diatrias-tolerare-tanquam-noster-caesium,"Diatrias tolerare tanquam noster caesium","Eposs sunt solems de superbus fortis. Curabitur aliquam euismod dolor non ornare. Nunc viverra elit ac laoreet suscipit. Lorem ipsum dolor sit amet consectetur adipiscing elit. Sunt torquises imitari velox mirabilis medicinaes."
55,teres-talis-saepe-tractare-de-camerarius-flavum-sensorem,"Teres talis saepe tractare de camerarius flavum sensorem","Nunc viverra elit ac laoreet suscipit. Urna nisl sollicitudin id varius orci quam id turpis. Teres talis saepe tractare de camerarius flavum sensorem. Ubi est barbatus nix. Sed varius a risus eget aliquam. Mineralis persuadere omnes finises desiderium."
56,silva-de-secundus-galatae-demitto-quadra,"Silva de secundus galatae demitto quadra","Sunt accentores vitare salvus flavum parses. Morbi tempus commodo mattis. Aliquam sodales odio id eleifend tristique. Eros diam egestas libero eu vulputate risus. Nunc viverra elit ac laoreet suscipit. Vae humani generis."
57,sunt-accentores-vitare-salvus-flavum-parses,"Sunt accentores vitare salvus flavum parses","Ut eleifend mauris et risus ultrices egestas. Ubi est barbatus nix. Abnobas sunt hilotaes de placidus vita. Teres talis saepe tractare de camerarius flavum sensorem. Potus sensim ad ferox abnoba. Pellentesque et sapien pulvinar consectetur."
58,potus-sensim-ad-ferox-abnoba,"Potus sensim ad ferox abnoba","Aliquam sodales odio id eleifend tristique. Teres talis saepe tractare de camerarius flavum sensorem. Ut eleifend mauris et risus ultrices egestas. Pellentesque et sapien pulvinar consectetur. Nunc viverra elit ac laoreet suscipit."
59,sunt-seculaes-transferre-talis-camerarius-fluctuies,"Sunt seculaes transferre talis camerarius fluctuies","Nulla porta lobortis ligula vel egestas. Curabitur aliquam euismod dolor non ornare. Urna nisl sollicitudin id varius orci quam id turpis. Nunc viverra elit ac laoreet suscipit. Eros diam egestas libero eu vulputate risus."
60,era-brevis-ratione-est,"Era brevis ratione est","Nulla porta lobortis ligula vel egestas. Curabitur aliquam euismod dolor non ornare. Silva de secundus galatae demitto quadra. Teres talis saepe tractare de camerarius flavum sensorem. Sed varius a risus eget aliquam. Morbi tempus commodo mattis."
61,sunt-torquises-imitari-velox-mirabilis-medicinaes,"Sunt torquises imitari velox mirabilis medicinaes","Mineralis persuadere omnes finises desiderium. Pellentesque vitae velit ex. Eposs sunt solems de superbus fortis. Sunt seculaes transferre talis camerarius fluctuies. Silva de secundus galatae demitto quadra."
62,mineralis-persuadere-omnes-finises-desiderium,"Mineralis persuadere omnes finises desiderium","Lorem ipsum dolor sit amet consectetur adipiscing elit. Vae humani generis. Ubi est barbatus nix. Eposs sunt solems de superbus fortis. Sunt torquises imitari velox mirabilis medicinaes. Nulla porta lobortis ligula vel egestas."
63,bassus-fatalis-classiss-virtualiter-transferre-de-flavum,"Bassus fatalis classiss virtualiter transferre de flavum","Abnobas sunt hilotaes de placidus vita. Silva de secundus galatae demitto quadra. Pellentesque et sapien pulvinar consectetur. Ut suscipit posuere justo at vulputate. Era brevis ratione est. Nunc viverra elit ac laoreet suscipit."
64,mauris-dapibus-risus-quis-suscipit-vulputate-1,"Mauris dapibus risus quis suscipit vulputate","Aliquam sodales odio id eleifend tristique. Ubi est barbatus nix. In hac habitasse platea dictumst. Morbi tempus commodo mattis. Pellentesque vitae velit ex. Era brevis ratione est. Bassus fatalis classiss virtualiter transferre de flavum."
65,morbi-tempus-commodo-mattis-1,"Morbi tempus commodo mattis","Sed varius a risus eget aliquam. Silva de secundus galatae demitto quadra. Bassus fatalis classiss virtualiter transferre de flavum. Nulla porta lobortis ligula vel egestas. Lorem ipsum dolor sit amet consectetur adipiscing elit."
66,mauris-dapibus-risus-quis-suscipit-vulputate-2,"Mauris dapibus risus quis suscipit vulputate","Aliquam sodales odio id eleifend tristique. Ubi est barbatus nix. In hac habitasse platea dictumst. Morbi tempus commodo mattis. Pellentesque vitae velit ex. Era brevis ratione est. Bassus fatalis classiss virtualiter transferre de flavum."
70,mauris-dapibus-risus-quis-suscipit-vulputate-3,"Mauris dapibus risus quis suscipit vulputate","Mauris dapibus risus quis suscipit vulputate Mauris dapibus risus quis suscipit vulputate Mauris dapibus risus quis suscipit vulputate"
71,mauris-dapibus-risus-quis-suscipit-vulputate,"Mauris dapibus risus quis suscipit vulputate","Aliquam sodales odio id eleifend tristique. Ubi est barbatus nix. In hac habitasse platea dictumst. Morbi tempus commodo mattis. Pellentesque vitae velit ex. Era brevis ratione est. Bassus fatalis classiss virtualiter transferre de flavum."
74,mauris-dapibus-risus-quis-suscipit-vulputate-4,"Mauris dapibus risus quis suscipit vulputate","Mauris dapibus risus quis suscipit vulputate Mauris dapibus risus quis suscipit vulputate Mauris dapibus risus quis suscipit vulputate"
75,mauris-dapibus-risus-quis-suscipit-vulputate-5,"Mauris dapibus risus quis suscipit vulputate","Mauris dapibus risus quis suscipit vulputate Mauris dapibus risus quis suscipit vulputate Mauris dapibus risus quis suscipit vulputate"
76,mauris-dapibus-risus-quis-suscipit-vulputate-6,"Mauris dapibus risus quis suscipit vulputate","Mauris dapibus risus quis suscipit vulputate Mauris dapibus risus quis suscipit vulputate Mauris dapibus risus quis suscipit vulputate"
77,mauris-dapibus-risus-quis-suscipit-vulputate-7,"Mauris dapibus risus quis suscipit vulputate","Mauris dapibus risus quis suscipit vulputate Mauris dapibus risus quis suscipit vulputate Mauris dapibus risus quis suscipit vulputate"
78,mauris-dapibus-risus-quis-suscipit-vulputate-8,"Mauris dapibus risus quis suscipit vulputate","Mauris dapibus risus quis suscipit vulputate Mauris dapibus risus quis suscipit vulputate Mauris dapibus risus quis suscipit vulputate"
79,mauris-dapibus-risus-quis-suscipit-vulputate-9,"Mauris dapibus risus quis suscipit vulputate","Mauris dapibus risus quis suscipit vulputate Mauris dapibus risus quis suscipit vulputate Mauris dapibus risus quis suscipit vulputate"
